%YAML 1.1
%TAG !u! tag:unity3d.com,2011:
--- !u!78 &1
TagManager:
  serializedVersion: 2
  tags:
  - Missile
  - DrawControl-1
  - DrawControl-2
  - DrawControl-3
  - DrawControl-4
  - Floor
  - Enemy
  - Lightning
  - Attack
  - EnemyGroup
  - Finsih
  layers:
  - Default
  - TransparentFX
  - Ignore Raycast
  - 
  - Water
  - UI
  - Draw
  - Lightning
  - Ice
  - Diamond
  - Portal
  - Fire
  - 
  - 
  - 
  - 
  - 
  - 
  - 
  - 
  - 
  - 
  - 
  - 
  - 
  - 
  - 
  - 
  - 
  - 
  - 
  - 
  m_SortingLayers:
  - name: Default
    uniqueID: 0
    locked: 0
